Split mixed datasets — edc_split_mixed • EDCimport
…
db$ae #`aesoc`, `aegr`, and `sae` are long, but `n_ae` is short
#> # A tibble: 175 × 7
#>    subjid crfname        aesoc                          aegr  n_ae sae   crfstat
#>     <int> <chr>          <chr>                         <int> <int> <fct> <chr>  
#>  1      1 Adverse events Endocrine disorders               2     5 No    Incomp…
#>  2      1 Adverse events Gastrointestinal disorders        2     5 No    Comple…
#>  3      1 Adverse events Reproductive system and brea…     2     5 No    Comple…
#>  4      1 Adverse events Renal and urinary disorders       3     5 No    Comple…
#>  5      1 Adverse events Neoplasms benign, malignant …     1     5 No    Comple…
#>  6      2 Adverse events Vascular disorders                3     5 No    Incomp…
#>  7      2 Adverse events Nervous system disorders          3     5 No    Comple…
#>  8      2 Adverse events Injury, poisoning and proced…     1     5 No    Comple…
#>  9      2 Adverse events Hepatobiliary disorders           1     5 No    Comple…
#> 10      2 Adverse events Injury, poisoning and proced…     2     5 No    Comple…
#> # ℹ 165 more rows

db$ae_short
#> # A tibble: 48 × 3
#>    subjid crfname         n_ae
#>     <int> <chr>          <int>
#>  1      1 Adverse events     5
#>  2      2 Adverse events     5
#>  3      3 Adverse events     2
#>  4      4 Adverse events     4
#>  5      5 Adverse events     3
#>  6      6 Adverse events     3
#>  7      7 Adverse events     4
#>  8      8 Adverse events     1
#>  9      9 Adverse events     4
#> 10     10 Adverse events     4
#> # ℹ 38 more rows
db$ae_long
#> # A tibble: 175 × 5
#>    subjid aesoc                                               aegr sae   crfstat
#>     <int> <chr>                                              <int> <fct> <chr>  
#>  1      1 Endocrine disorders                                    2 No    Incomp…
#>  2      1 Gastrointestinal disorders                             2 No    Comple…
#>  3      1 Reproductive system and breast disorders               2 No    Comple…
#>  4      1 Renal and urinary disorders                            3 No    Comple…
#>  5      1 Neoplasms benign, malignant and unspecified (incl…     1 No    Comple…
#>  6      2 Vascular disorders                                     3 No    Incomp…
#>  7      2 Nervous system disorders                               3 No    Comple…
#>  8      2 Injury, poisoning and procedural complications         1 No    Comple…
#>  9      2 Hepatobiliary disorders                                1 No    Comple…
#> 10      2 Injury, poisoning and procedural complications         2 No    Comple…
#> # ℹ 165 more rows
…
