…
edc_find_value("respi")
#> # A tibble: 8 × 5
#>   subjid dataset column column_label value                                      
#>   <chr>  <chr>   <chr>  <chr>        <chr>                                      
#> 1 10     ae      aesoc  AE SOC       Respiratory, thoracic and mediastinal diso…
#> 2 13     ae      aesoc  AE SOC       Respiratory, thoracic and mediastinal diso…
#> 3 13     ae      aesoc  AE SOC       Respiratory, thoracic and mediastinal diso…
#> 4 17     ae      aesoc  AE SOC       Respiratory, thoracic and mediastinal diso…
#> 5 22     ae      aesoc  AE SOC       Respiratory, thoracic and mediastinal diso…
#> 6 29     ae      aesoc  AE SOC       Respiratory, thoracic and mediastinal diso…
#> 7 44     ae      aesoc  AE SOC       Respiratory, thoracic and mediastinal diso…
#> 8 47     ae      aesoc  AE SOC       Respiratory, thoracic and mediastinal diso…
edc_find_value(2010)
#> # A tibble: 700 × 5
#>    subjid dataset column column_label    value     
#>    <chr>  <chr>   <chr>  <chr>           <chr>     
#>  1 1      data1   date1  Date at visit 1 2010-04-26
#>  2 1      data1   date1  Date at visit 1 2010-04-26
#>  3 2      data1   date1  Date at visit 1 2010-04-15
#>  4 2      data1   date1  Date at visit 1 2010-04-15
#>  5 3      data1   date1  Date at visit 1 2010-05-08
#>  6 3      data1   date1  Date at visit 1 2010-05-08
#>  7 4      data1   date1  Date at visit 1 2010-04-29
#>  8 4      data1   date1  Date at visit 1 2010-04-29
#>  9 5      data1   date1  Date at visit 1 2010-04-23
#> 10 5      data1   date1  Date at visit 1 2010-04-23
#> # ℹ 690 more rows
…
