Get columns that are common to multiple datasets — get_common_cols • EDCimport
…
...
unused

    Value

    a tibble of class "common_cols"

    Examples

db = edc_example()
#> Warning: Option "edc_lookup" has been overwritten.
load_database(db)
x = get_common_cols(min_datasets=1)
x
#> # A tibble: 28 × 7
#>    column  name_in   datasets  n_datasets pct_datasets datasets_in  datasets_out
#>    <chr>   <list>    <list>         <int>        <dbl> <chr>        <chr>       
#>  1 crfname <lgl [8]> <chr [8]>          8        1     long_pure, … ""          
#>  2 subjid  <lgl [8]> <chr [8]>          8        1     long_pure, … ""          
#>  3 crfstat <lgl [8]> <chr [7]>          7        0.875 data1, long… "long_pure" 
#>  4 aegr    <lgl [8]> <chr [1]>          1        0.125 ae           "long_pure,…
#>  5 aesoc   <lgl [8]> <chr [1]>          1        0.125 ae           "long_pure,…
#>  6 age     <lgl [8]> <chr [1]>          1        0.125 enrol        "long_pure,…
#>  7 arm     <lgl [8]> <chr [1]>          1        0.125 enrol        "long_pure,…
#>  8 date1   <lgl [8]> <chr [1]>          1        0.125 data1        "long_pure,…
#>  9 date10  <lgl [8]> <chr [1]>          1        0.125 data3        "long_pure,…
#> 10 date2   <lgl [8]> <chr [1]>          1        0.125 data1        "long_pure,…
#> # ℹ 18 more rows
…
