Split mixed datasets — split_mixed_datasets • EDCimport
…
    Value

a list of the new long and short tables. Use load_list() to load them in the global environment.

    Examples

#tm = read_trialmaster("filename.zip", pw="xx")
tm = edc_example_mixed()
names(tm)
#> [1] "short"               "long_pure"           "long_mixed"         
#> [4] "date_extraction"     "datetime_extraction" ".lookup"            
load_list(tm)
print(long_mixed) #`val1` and `val2` are long but `val3` is short
#> # A tibble: 200 × 4
#>    SUBJID   val1  val2 val3 
#>     <int>  <dbl> <dbl> <chr>
#>  1      1 -1.01   9.08 B    
#>  2      1  1.31   9.45 B    
#>  3      2  3.40  11.7  C    
#>  4      2 -1.38   9.28 C    
#>  5      3  1.53   9.39 D    
#>  6      3 -0.398  8.85 D    
#>  7      4  1.13  10.9  E    
#>  8      4  0.204 10.1  E    
#>  9      5  0.244 11.3  F    
#> 10      5  0.976 10.6  F    
#> # ℹ 190 more rows
…
