…
## Examples

``` r
#tm = read_trialmaster("filename.zip", pw="xx")
tm = edc_example_mixed()
#> Warning: Option "edc_lookup" has been overwritten.
names(tm)
#> [1] "short"               "long_pure"           "long_mixed"         
#> [4] "date_extraction"     "datetime_extraction" ".lookup"            
#load_list(tm)
print(tm$long_mixed) #`val1` and `val2` are long but `val3` is short
#> # A tibble: 200 × 5
#>    SUBJID crfname     val1b val2b val3b
#>     <int> <chr>       <dbl> <dbl> <chr>
#>  1      1 long_mixed  0.689 12.3  B    
#>  2      1 long_mixed  0.725 10.5  B    
#>  3      2 long_mixed  0.217 11.0  C    
#>  4      2 long_mixed -0.202 10.4  C    
#>  5      3 long_mixed -1.37   9.00 D    
#>  6      3 long_mixed -0.309  9.40 D    
#>  7      4 long_mixed -0.453 10.2  E    
#>  8      4 long_mixed  0.663  7.07 E    
#>  9      5 long_mixed  1.31   9.15 F    
#> 10      5 long_mixed  0.501 10.8  F    
#> # ℹ 190 more rows

mixed_data = split_mixed_datasets(tm, id="subjid", verbose=TRUE)
#> ✔ There was 1 short table:
#>   "short"
#> ✔ There was 1 pure long table:
#>   "long_pure"
#> ✔ There was 1 mixed (short+long) table:
#>   "long_mixed"
#> → Use `EDCimport::load_list()` on the result to get separated long and short
#>   data.
load_list(mixed_data)
print(long_mixed_short) 
#> # A tibble: 100 × 3
#>    SUBJID crfname    val3b
#>     <int> <chr>      <chr>
#>  1      1 long_mixed B    
#>  2      2 long_mixed C    
#>  3      3 long_mixed D    
#>  4      4 long_mixed E    
#>  5      5 long_mixed F    
#>  6      6 long_mixed G    
#>  7      7 long_mixed H    
#>  8      8 long_mixed I    
#>  9      9 long_mixed J    
#> 10     10 long_mixed K    
#> # ℹ 90 more rows
print(long_mixed_long) 
#> # A tibble: 200 × 3
#>    SUBJID  val1b val2b
#>     <int>  <dbl> <dbl>
#>  1      1  0.689 12.3 
#>  2      1  0.725 10.5 
#>  3      2  0.217 11.0 
#>  4      2 -0.202 10.4 
#>  5      3 -1.37   9.00
#>  6      3 -0.309  9.40
#>  7      4 -0.453 10.2 
#>  8      4  0.663  7.07
#>  9      5  1.31   9.15
#> 10      5  0.501 10.8 
#> # ℹ 190 more rows
…
