3 - Data checking • EDCimport
…
Currently, edc_example() does not include an explicit table for this scenario, so let’s consider the following example:

data3$date10 is your last visit date in your followup dataset. It is the origin you should prefer if there is a tie and the reference to identify any inconsistency.

data1 is a dataset containing scheduled protocol dates, such as planned medical visits. You should ignore all columns in this dataset, as they do not pertain to the patient’s last known

date8 and date9 are dates when treatments were administered. They imply that the patient was alive at that time. If a date is after date10, it means that the survival time is underestimated.

Here is how to parameterize lastnews_table() to fit this scenario:

lastnews_table(prefer="date10", except="data1", show_delta=TRUE) %>% 
  mutate(delta=round(delta)) %>% 
  arrange(desc(delta))
#> # A tibble: 200 × 8
#>    subjid last_date  origin_data origin_col origin_label    preferred_last_date
#>     <dbl> <date>     <chr>       <chr>      <chr>           <date>             
#>  1      9 2010-08-01 data3       date9      Date at visit 9 2010-07-14         
#>  2     41 2010-07-28 data3       date9      Date at visit 9 2010-07-09         
#>  3     71 2010-07-16 data3       date8      Date at visit 8 2010-06-28         
#>  4    186 2010-07-12 data3       date9      Date at visit 9 2010-06-23         
#>  5     14 2010-07-30 data3       date9      Date at visit 9 2010-07-13         
#>  6     61 2010-07-30 data3       date9      Date at visit 9 2010-07-12         
#>  7     68 2010-08-06 data3       date8      Date at visit 8 2010-07-20         
#>  8    120 2010-07-27 data3       date9      Date at visit 9 2010-07-09         
#>  9     58 2010-07-31 data3       date9      Date at visit 9 2010-07-15         
#> 10     93 2010-07-30 data3       date9      Date at visit 9 2010-07-13         
#> # ℹ 190 more rows
#> # ℹ 2 more variables: preferred_origin <chr>, delta <drtn>
…
